Project 1: Exploratory Data Analysis
…
GenreMJ %>% group_by(rating, country) %>% summarise(ms = mean(score)) %>% 
    arrange(desc(ms))

## # A tibble: 102 x 3
## # Groups:   rating [8]
##    rating    country         ms
##    <chr>     <chr>        <dbl>
##  1 UNRATED   India         8.7 
##  2 PG-13     Italy         8.6 
##  3 PG        Iran          8.4 
##  4 R         Brazil        8.35
##  5 PG-13     India         8.2 
##  6 R         Argentina     8.2 
##  7 NOT RATED South Korea   8.1 
##  8 PG-13     West Germany  8.1 
##  9 NOT RATED India         8.07
## 10 PG        India         8   
## # … with 92 more rows
…
GenreMJ %>% mutate(net = revenue - budget) %>% filter(net == 
    max(net)) %>% select(name)

## # A tibble: 1 x 1
##   name  
##   <chr> 
## 1 Avatar

The movie genre with the greatest mean revenue is Animation and the lowest is Crime. The film with the greatest net profit, the difference between revenue and budget, is Avatar.

GenreMJ %>% select(country) %>% count(country) %>% arrange(desc(n))

## # A tibble: 39 x 2
##    country       n
##    <chr>     <int>
##  1 USA        2649
##  2 UK          285
##  3 France       65
##  4 Germany      37
##  5 Canada       30
##  6 India        18
##  7 Spain        17
##  8 Australia    16
##  9 Japan        16
## 10 Ireland      12
## # … with 29 more rows
…
GenreMJ %>% group_by(country) %>% summarise(mv = mean(votes)) %>% 
    arrange(desc(mv))

## # A tibble: 39 x 2
##    country           mv
##    <chr>          <dbl>
##  1 New Zealand  528358.
##  2 Brazil       305391 
##  3 South Africa 194639 
##  4 Argentina    149747 
##  5 Sweden       141918.
##  6 China        137917.
##  7 Spain        124429.
##  8 USA          121716.
##  9 UK           114764.
## 10 Australia    105586.
## # … with 29 more rows

The most represented country in the dataset is the USA, which accounts for 2649 of the observations. Animation films have, on average, the lowest runtimes while Biographies have the highest mean runtime. When grouped by country, movies from New Zealand have the highest mean number of votes on IMDb.

Pivoting

GenreMJ %>% group_by(genre) %>% summarise_if(is.numeric, c(mean, 
    sd, var, min, max)) %>% pivot_longer(contains("_")) %>% separate(name, 
    sep = "_", into = c("variable", "summarystat")) %>% pivot_wider(names_from = "variable", 
    values_from = "value") %>% mutate(summarystat = recode(summarystat, 
    fn1 = "mean", fn2 = "sd", fn3 = "var", fn4 = "min", fn5 = "max"))

## # A tibble: 40 x 8
##    genre     summarystat  budget revenue runtime.y score        votes    year
##    <chr>     <chr>         <dbl>   <dbl>     <dbl> <dbl>        <dbl>   <dbl>
##  1 Action    mean        6.38e 7 1.74e 8     112.  6.24       151843. 2003.  
##  2 Action    sd          5.59e 7 2.47e 8      17.4 0.976      187747.    8.59
##  3 Action    var         3.12e15 6.09e16     304.  0.952 35249069440.   73.9 
##  4 Action    min         7.00e 0 5.00e 0      75   2             368  1986   
##  5 Action    max         3.80e 8 2.79e 9     187   9         1839571  2016   
##  6 Adventure mean        5.20e 7 1.91e 8     115.  6.56       164592. 2004.  
##  7 Adventure sd          5.30e 7 2.75e 8      24.2 1.09       222285.    8.79
##  8 Adventure var         2.81e15 7.57e16     585.  1.18  49410579449.   77.3 
##  9 Adventure min         1.30e 5 3.06e 4      79   2.3           703  1986   
## 10 Adventure max         2.50e 8 1.34e 9     224   8.9       1352483  2016   
## # … with 30 more rows
…
